module gitlab.com/dev2616/s3-file-upload

go 1.20

require (
	github.com/aws/aws-sdk-go-v2 v1.17.7
	github.com/aws/aws-sdk-go-v2/config v1.18.19
	github.com/aws/aws-sdk-go-v2/feature/s3/manager v1.11.59
	github.com/aws/aws-sdk-go-v2/service/s3 v1.31.0
	github.com/gin-gonic/gin v1.9.0
)

require (
	github.com/aws/aws-sdk-go-v2/aws/protocol/eventstream v1.4.10 // indirect
	github.com/aws/aws-sdk-go-v2/credentials v1.13.18 // indirect
	github.com/aws/aws-sdk-go-v2/feature/ec2/imds v1.13.1 // indirect
	github.com/aws/aws-sdk-go-v2/internal/configsources v1.1.31 // indirect
	github.com/aws/aws-sdk-go-v2/internal/endpoints/v2 v2.4.25 // indirect
	github.com/aws/aws-sdk-go-v2/internal/ini v1.3.32 // indirect
	github.com/aws/aws-sdk-go-v2/internal/v4a v1.0.23 // indirect
	github.com/aws/aws-sdk-go-v2/service/internal/accept-encoding v1.9.11 // indirect
	github.com/aws/aws-sdk-go-v2/service/internal/checksum v1.1.26 // indirect
	github.com/aws/aws-sdk-go-v2/service/internal/presigned-url v1.9.25 // indirect
	github.com/aws/aws-sdk-go-v2/service/internal/s3shared v1.14.0 // indirect
	github.com/aws/aws-sdk-go-v2/service/sso v1.12.6 // indirect
	github.com/aws/aws-sdk-go-v2/service/ssooidc v1.14.6 // indirect
	github.com/aws/aws-sdk-go-v2/service/sts v1.18.7 // indirect
	github.com/aws/smithy-go v1.13.5 // indirect
	github.com/bytedance/sonic v1.8.0 // indirect
	github.com/chenzhuoyu/base64x v0.0.0-20221115062448-fe3a3abad311 // indirect
	github.com/gin-contrib/sse v0.1.0 // indirect
	github.com/go-playground/locales v0.14.1 // indirect
	github.com/go-playground/universal-translator v0.18.1 // indirect
	github.com/go-playground/validator/v10 v10.11.2 // indirect
	github.com/goccy/go-json v0.10.0 // indirect
	github.com/jmespath/go-jmespath v0.4.0 // indirect
	github.com/json-iterator/go v1.1.12 // indirect
	github.com/klauspost/cpuid/v2 v2.0.9 // indirect
	github.com/leodido/go-urn v1.2.1 // indirect
	github.com/mattn/go-isatty v0.0.17 // indirect
	github.com/modern-go/concurrent v0.0.0-20180228061459-e0a39a4cb421 // indirect
	github.com/modern-go/reflect2 v1.0.2 // indirect
	github.com/pelletier/go-toml/v2 v2.0.6 // indirect
	github.com/twitchyliquid64/golang-asm v0.15.1 // indirect
	github.com/ugorji/go/codec v1.2.9 // indirect
	golang.org/x/arch v0.0.0-20210923205945-b76863e36670 // indirect
	golang.org/x/crypto v0.5.0 // indirect
	golang.org/x/net v0.7.0 // indirect
	golang.org/x/sys v0.5.0 // indirect
	golang.org/x/text v0.7.0 // indirect
	google.golang.org/protobuf v1.28.1 // indirect
	gopkg.in/yaml.v3 v3.0.1 // indirect
)
